module github.com/rollkit/rollkit

go 1.18

require (
	github.com/celestiaorg/go-cnc v0.3.0
	github.com/celestiaorg/go-fraud v0.1.0
	github.com/celestiaorg/go-header v0.2.6
	github.com/dgraph-io/badger/v3 v3.2103.5
	github.com/go-kit/kit v0.12.0
	github.com/gogo/protobuf v1.3.3
	github.com/gorilla/mux v1.8.0
	github.com/gorilla/rpc v1.2.0
	github.com/gorilla/websocket v1.5.0
	github.com/ipfs/go-datastore v0.6.0
	github.com/ipfs/go-ds-badger3 v0.0.2
	github.com/ipfs/go-log v1.0.5
	github.com/libp2p/go-libp2p v0.26.3
	github.com/libp2p/go-libp2p-kad-dht v0.23.0
	github.com/libp2p/go-libp2p-pubsub v0.9.3
	github.com/multiformats/go-multiaddr v0.9.0
	github.com/prometheus/client_golang v1.15.1
	github.com/rs/cors v1.9.0
	github.com/spf13/cobra v1.7.0
	github.com/spf13/viper v1.15.0
	github.com/stretchr/testify v1.8.2
	github.com/tendermint/tendermint v0.34.21
	go.uber.org/multierr v1.11.0
	golang.org/x/net v0.10.0
	google.golang.org/grpc v1.53.0
	google.golang.org/protobuf v1.30.0
)

require (
	github.com/benbjohnson/clock v1.3.0 // indirect
	github.com/beorn7/perks v1.0.1 // indirect
	github.com/btcsuite/btcd/btcec/v2 v2.3.2 // indirect
	github.com/celestiaorg/go-libp2p-messenger v0.2.0 // indirect
	github.com/cespare/xxhash v1.1.0 // indirect
	github.com/cespare/xxhash/v2 v2.2.0 // indirect
	github.com/cometbft/cometbft-db v0.8.0 // indirect
	github.com/containerd/cgroups v1.0.4 // indirect
	github.com/coreos/go-systemd/v22 v22.5.0 // indirect
	github.com/cosmos/go-bip39 v1.0.0 // indirect
	github.com/davecgh/go-spew v1.1.1 // indirect
	github.com/davidlazar/go-crypto v0.0.0-20200604182044-b73af7476f6c // indirect
	github.com/decred/dcrd/dcrec/secp256k1/v4 v4.1.0 // indirect
	github.com/dgraph-io/badger/v2 v2.2007.4 // indirect
	github.com/dgraph-io/ristretto v0.1.1 // indirect
	github.com/dgryski/go-farm v0.0.0-20200201041132-a6ae2369ad13 // indirect
	github.com/docker/go-units v0.5.0 // indirect
	github.com/dustin/go-humanize v1.0.0 // indirect
	github.com/elastic/gosigar v0.14.2 // indirect
	github.com/flynn/noise v1.0.0 // indirect
	github.com/francoispqt/gojay v1.2.13 // indirect
	github.com/fsnotify/fsnotify v1.6.0 // indirect
	github.com/go-kit/log v0.2.1 // indirect
	github.com/go-logfmt/logfmt v0.5.1 // indirect
	github.com/go-logr/logr v1.2.3 // indirect
	github.com/go-logr/stdr v1.2.2 // indirect
	github.com/go-resty/resty/v2 v2.7.0 // indirect
	github.com/go-task/slim-sprig v0.0.0-20210107165309-348f09dbbbc0 // indirect
	github.com/godbus/dbus/v5 v5.1.0 // indirect
	github.com/golang/glog v1.0.0 // indirect
	github.com/golang/groupcache v0.0.0-20210331224755-41bb18bfe9da // indirect
	github.com/golang/mock v1.6.0 // indirect
	github.com/golang/protobuf v1.5.3 // indirect
	github.com/golang/snappy v0.0.4 // indirect
	github.com/google/btree v1.1.2 // indirect
	github.com/google/flatbuffers v1.12.1 // indirect
	github.com/google/gopacket v1.1.19 // indirect
	github.com/google/pprof v0.0.0-20221203041831-ce31453925ec // indirect
	github.com/google/uuid v1.3.0 // indirect
	github.com/gopherjs/gopherjs v0.0.0-20190812055157-5d271430af9f // indirect
	github.com/gtank/merlin v0.1.1 // indirect
	github.com/hashicorp/errwrap v1.1.0 // indirect
	github.com/hashicorp/go-multierror v1.1.1 // indirect
	github.com/hashicorp/golang-lru v0.5.5-0.20210104140557-80c98217689d // indirect
	github.com/hashicorp/golang-lru/v2 v2.0.1 // indirect
	github.com/hashicorp/hcl v1.0.0 // indirect
	github.com/huin/goupnp v1.0.3 // indirect
	github.com/inconshreveable/mousetrap v1.1.0 // indirect
	github.com/ipfs/boxo v0.8.0 // indirect
	github.com/ipfs/go-cid v0.4.0 // indirect
	github.com/ipfs/go-ipfs-util v0.0.2 // indirect
	github.com/ipfs/go-log/v2 v2.5.1 // indirect
	github.com/ipld/go-ipld-prime v0.20.0 // indirect
	github.com/jackpal/go-nat-pmp v1.0.2 // indirect
	github.com/jbenet/go-temp-err-catcher v0.1.0 // indirect
	github.com/jbenet/goprocess v0.1.4 // indirect
	github.com/jmhodges/levigo v1.0.0 // indirect
	github.com/klauspost/compress v1.15.12 // indirect
	github.com/klauspost/cpuid/v2 v2.2.3 // indirect
	github.com/koron/go-ssdp v0.0.3 // indirect
	github.com/libp2p/go-buffer-pool v0.1.0 // indirect
	github.com/libp2p/go-cidranger v1.1.0 // indirect
	github.com/libp2p/go-flow-metrics v0.1.0 // indirect
	github.com/libp2p/go-libp2p-asn-util v0.2.0 // indirect
	github.com/libp2p/go-libp2p-kbucket v0.5.0 // indirect
	github.com/libp2p/go-libp2p-record v0.2.0 // indirect
	github.com/libp2p/go-msgio v0.3.0 // indirect
	github.com/libp2p/go-nat v0.1.0 // indirect
	github.com/libp2p/go-netroute v0.2.1 // indirect
	github.com/libp2p/go-reuseport v0.2.0 // indirect
	github.com/libp2p/go-yamux/v4 v4.0.0 // indirect
	github.com/linxGnu/grocksdb v1.7.16 // indirect
	github.com/magiconair/properties v1.8.7 // indirect
	github.com/marten-seemann/tcp v0.0.0-20210406111302-dfbc87cc63fd // indirect
	github.com/mattn/go-isatty v0.0.17 // indirect
	github.com/matttproud/golang_protobuf_extensions v1.0.4 // indirect
	github.com/miekg/dns v1.1.50 // indirect
	github.com/mikioh/tcpinfo v0.0.0-20190314235526-30a79bb1804b // indirect
	github.com/mikioh/tcpopt v0.0.0-20190314235656-172688c1accc // indirect
	github.com/mimoo/StrobeGo v0.0.0-20181016162300-f8f6d4d2b643 // indirect
	github.com/minio/sha256-simd v1.0.0 // indirect
	github.com/mitchellh/mapstructure v1.5.0 // indirect
	github.com/mr-tron/base58 v1.2.0 // indirect
	github.com/multiformats/go-base32 v0.1.0 // indirect
	github.com/multiformats/go-base36 v0.2.0 // indirect
	github.com/multiformats/go-multiaddr-dns v0.3.1 // indirect
	github.com/multiformats/go-multiaddr-fmt v0.1.0 // indirect
	github.com/multiformats/go-multibase v0.1.1 // indirect
	github.com/multiformats/go-multicodec v0.8.1 // indirect
	github.com/multiformats/go-multihash v0.2.2-0.20221030163302-608669da49b6 // indirect
	github.com/multiformats/go-multistream v0.4.1 // indirect
	github.com/multiformats/go-varint v0.0.7 // indirect
	github.com/onsi/ginkgo/v2 v2.5.1 // indirect
	github.com/opencontainers/runtime-spec v1.0.3-0.20210326190908-1c3f411f0417 // indirect
	github.com/opentracing/opentracing-go v1.2.0 // indirect
	github.com/pbnjay/memory v0.0.0-20210728143218-7b4eea64cf58 // indirect
	github.com/pelletier/go-toml/v2 v2.0.6 // indirect
	github.com/petermattis/goid v0.0.0-20180202154549-b0b1615b78e5 // indirect
	github.com/pkg/errors v0.9.1 // indirect
	github.com/pmezard/go-difflib v1.0.0 // indirect
	github.com/polydawn/refmt v0.89.0 // indirect
	github.com/prometheus/client_model v0.3.0 // indirect
	github.com/prometheus/common v0.42.0 // indirect
	github.com/prometheus/procfs v0.9.0 // indirect
	github.com/quic-go/qpack v0.4.0 // indirect
	github.com/quic-go/qtls-go1-19 v0.2.1 // indirect
	github.com/quic-go/qtls-go1-20 v0.1.1 // indirect
	github.com/quic-go/quic-go v0.33.0 // indirect
	github.com/quic-go/webtransport-go v0.5.2 // indirect
	github.com/raulk/go-watchdog v1.3.0 // indirect
	github.com/sasha-s/go-deadlock v0.3.1 // indirect
	github.com/spaolacci/murmur3 v1.1.0 // indirect
	github.com/spf13/afero v1.9.3 // indirect
	github.com/spf13/cast v1.5.0 // indirect
	github.com/spf13/jwalterweatherman v1.1.0 // indirect
	github.com/spf13/pflag v1.0.5 // indirect
	github.com/stretchr/objx v0.5.0 // indirect
	github.com/subosito/gotenv v1.4.2 // indirect
	github.com/syndtr/goleveldb v1.0.1-0.20210819022825-2ae1ddf74ef7 // indirect
	github.com/whyrusleeping/go-keyspace v0.0.0-20160322163242-5b898ac5add1 // indirect
	go.etcd.io/bbolt v1.3.7 // indirect
	go.opencensus.io v0.24.0 // indirect
	go.opentelemetry.io/otel v1.14.0 // indirect
	go.opentelemetry.io/otel/metric v0.34.0 // indirect
	go.opentelemetry.io/otel/trace v1.14.0 // indirect
	go.uber.org/atomic v1.10.0 // indirect
	go.uber.org/dig v1.15.0 // indirect
	go.uber.org/fx v1.18.2 // indirect
	go.uber.org/zap v1.24.0 // indirect
	golang.org/x/crypto v0.9.0 // indirect
	golang.org/x/exp v0.0.0-20230213192124-5e25df0256eb // indirect
	golang.org/x/mod v0.8.0 // indirect
	golang.org/x/sync v0.1.0 // indirect
	golang.org/x/sys v0.8.0 // indirect
	golang.org/x/text v0.9.0 // indirect
	golang.org/x/tools v0.6.0 // indirect
	gonum.org/v1/gonum v0.11.0 // indirect
	google.golang.org/genproto v0.0.0-20230110181048-76db0878b65f // indirect
	gopkg.in/ini.v1 v1.67.0 // indirect
	gopkg.in/yaml.v3 v3.0.1 // indirect
	lukechampine.com/blake3 v1.1.7 // indirect
	nhooyr.io/websocket v1.8.7 // indirect
)

replace (
	github.com/gogo/protobuf => github.com/regen-network/protobuf v1.3.2-alpha.regen.4
	// github.com/tendermint/tendermint => github.com/celestiaorg/tendermint v0.34.22-0.20221202214355-3605c597500d
	github.com/tendermint/tendermint => github.com/rollkit/cometbft v0.0.0-20230524013001-2968c8b8b121
	google.golang.org/grpc => google.golang.org/grpc v1.33.2
)
