{
    "constants_sigmas_cap": [
        {
            "elements": [
                9037422181318074482,
                13844553280258601189,
                14013690396566737561,
                14600533186953608428
            ]
        },
        {
            "elements": [
                3891365497285560518,
                6785071445101560305,
                7146616719154245281,
                8484433928946731576
            ]
        },
        {
            "elements": [
                15935467950899360740,
                1041659913562170406,
                11898906592313038819,
                7940456224436700998
            ]
        },
        {
            "elements": [
                17420135248456983,
                10686061014804565544,
                17782021355470763205,
                12726022340820773339
            ]
        },
        {
            "elements": [
                13322967402317526249,
                12119892482906381301,
                1483851501277040422,
                17519911664522741561
            ]
        },
        {
            "elements": [
                3901474702590233137,
                16494478574194405372,
                3644962804006307872,
                7967195830112920768
            ]
        },
        {
            "elements": [
                15532816309418050992,
                11198055639421810456,
                7449000032233257165,
                6080646728225911938
            ]
        },
        {
            "elements": [
                7944791944524511304,
                15470849481646525511,
                11102721978231118523,
                10011467322465036320
            ]
        },
        {
            "elements": [
                14679375199524381062,
                9219647684485300612,
                8902882543708912876,
                6737676211275058717
            ]
        },
        {
            "elements": [
                15215848762718399329,
                9538467614418882672,
                7337952705707955964,
                17932579689749986997
            ]
        },
        {
            "elements": [
                3111383469397480110,
                17276616486884637185,
                10511216595022742027,
                3343575652946909638
            ]
        },
        {
            "elements": [
                2417848701164748156,
                7846191940051381446,
                4363725272084187306,
                3143323624098735830
            ]
        },
        {
            "elements": [
                7639597922146523429,
                14015537888097194053,
                10449936634441844342,
                3897071524048579556
            ]
        },
        {
            "elements": [
                12445360068819311840,
                4910166437012489060,
                9670875686931891121,
                5569206524147441284
            ]
        },
        {
            "elements": [
                6965775890897127688,
                14853930701622190781,
                2643689027677976461,
                1883768007952536249
            ]
        },
        {
            "elements": [
                6771363979354677578,
                6567107174924251028,
                15758449129319031800,
                6619880945043941329
            ]
        }
    ],
    "circuit_digest": {
        "elements": [
            8574090053162898339,
            2808971464690312489,
            14807704193989191909,
            14951686172889873386
        ]
    }
}
